<?xml version="1.0" encoding="UTF-8"?>
<!DOCTYPE svg PUBLIC "-//W3C//DTD SVG 1.1//EN" "http://www.w3.org/Graphics/SVG/1.1/DTD/svg11.dtd">
<svg xmlns="http://www.w3.org/2000/svg" xml:space="preserve" width="1024px" height="1024px" shape-rendering="geometricPrecision" text-rendering="geometricPrecision" image-rendering="optimizeQuality" fill-rule="evenodd" clip-rule="evenodd" viewBox="0 0 10240 10240" xmlns:xlink="http://www.w3.org/1999/xlink">
	<path id="curve0" class="iconbrush" d="M2513 4411l1647 1647 0 -5120c0,-176 144,-320 320,-320l1280 0c176,0 320,144 320,320l0 5120 1647 -1647c47,-47 113,-60 174,-35 61,25 99,82 99,148l0 2064c0,176 -63,328 -187,453l-2466 2466c-125,125 -328,125 -453,0l-2466 -2466c-125,-125 -187,-276 -187,-453l0 -2064c0,-66 38,-123 99,-148 61,-25 128,-12 174,35z"/>
</svg>
